[gd_scene format=2]

[node name="Root" type="VBoxContainer" groups=[
"RootNode",
]]
anchor_right = 1.0
anchor_bottom = 1.0
rect_clip_content = true
custom_constants/separation = 50
__meta__ = {
"_edit_use_anchors_": false
}

[node name="RootLabel" type="Label" parent="."]
margin_right = 1024.0
margin_bottom = 14.0
align = 1
__meta__ = {
"_edit_use_anchors_": false
}

[node name="LeavesContainer" type="HBoxContainer" parent="."]
margin_top = 64.0
margin_right = 1024.0
margin_bottom = 64.0
rect_clip_content = true
alignment = 1
